{
   "results":[
      {
         "vote_count":4001,
         "id":299534,
         "video":false,
         "vote_average":8.6,
         "title":"Avengers: Endgame",
         "popularity":482.931,
         "poster_path":"\/or06FN3Dka5tukK1e9sl16pB3iy.jpg",
         "original_language":"en",
         "original_title":"Avengers: Endgame",
         "genre_ids":[
            12,
            878,
            28
         ],
         "backdrop_path":"\/7RyHsO4yDXtBv1zUU3mTpHeQ0d5.jpg",
         "adult":false,
         "overview":"After the devastating events of Avengers: Infinity War, the universe is in ruins due to the efforts of the Mad Titan, Thanos. With the help of remaining allies, the Avengers must assemble once more in order to undo Thanos' actions and restore order to the universe once and for all, no matter what consequences may be in store.",
         "release_date":"2019-04-24"
      },
      {
         "vote_count":294,
         "id":456740,
         "video":false,
         "vote_average":5.2,
         "title":"Hellboy",
         "popularity":250.432,
         "poster_path":"\/bk8LyaMqUtaQ9hUShuvFznQYQKR.jpg",
         "original_language":"en",
         "original_title":"Hellboy",
         "genre_ids":[
            28,
            12,
            14
         ],
         "backdrop_path":"\/5BkSkNtfrnTuKOtTaZhl8avn4wU.jpg",
         "adult":false,
         "overview":"Hellboy comes to England, where he must defeat Nimue, Merlin's consort and the Blood Queen. But their battle will bring about the end of the world, a fate he desperately tries to turn away.",
         "release_date":"2019-04-10"
      },
      {
         "vote_count":764,
         "id":537915,
         "video":false,
         "vote_average":6.2,
         "title":"After",
         "popularity":245.879,
         "poster_path":"\/u3B2YKUjWABcxXZ6Nm9h10hLUbh.jpg",
         "original_language":"en",
         "original_title":"After",
         "genre_ids":[
            18,
            10749
         ],
         "backdrop_path":"\/8lESY7UGpOsbL2caib9Qe4bOebF.jpg",
         "adult":false,
         "overview":"A young woman falls for a guy with a dark secret and the two embark on a rocky relationship.",
         "release_date":"2019-04-11"
      },
      {
         "vote_count":1379,
         "id":287947,
         "video":false,
         "vote_average":7.2,
         "title":"Shazam!",
         "popularity":187.612,
         "poster_path":"\/xnopI5Xtky18MPhK40cZAGAOVeV.jpg",
         "original_language":"en",
         "original_title":"Shazam!",
         "genre_ids":[
            35,
            12,
            14
         ],
         "backdrop_path":"\/bi4jh0Kt0uuZGsGJoUUfqmbrjQg.jpg",
         "adult":false,
         "overview":"A boy is given the ability to become an adult superhero in times of need with a single magic word.",
         "release_date":"2019-03-23"
      },
      {
         "vote_count":385,
         "id":438650,
         "video":false,
         "vote_average":5.3,
         "title":"Cold Pursuit",
         "popularity":184.169,
         "poster_path":"\/otK0H9H1w3JVGJjad5Kzx3Z9kt2.jpg",
         "original_language":"en",
         "original_title":"Cold Pursuit",
         "genre_ids":[
            28,
            18,
            53,
            80
         ],
         "backdrop_path":"\/aiM3XxYE2JvW1vJ4AC6cI1RjAoT.jpg",
         "adult":false,
         "overview":"Nels Coxman's quiet life comes crashing down when his beloved son dies under mysterious circumstances. His search for the truth soon becomes a quest for revenge as he seeks coldblooded justice against a drug lord and his inner circle.",
         "release_date":"2019-02-07"
      },
      {
         "vote_count":145,
         "id":445629,
         "video":false,
         "vote_average":6.5,
         "title":"Fighting with My Family",
         "popularity":130.579,
         "poster_path":"\/3TZCBAdKQiz0cGKGEjZiyZUA01O.jpg",
         "original_language":"en",
         "original_title":"Fighting with My Family",
         "genre_ids":[
            35,
            18
         ],
         "backdrop_path":"\/ye42ldRnGMkSGkKLlPx9shccrzV.jpg",
         "adult":false,
         "overview":"Born into a tight-knit wrestling family, Paige and her brother Zak are ecstatic when they get the once-in-a-lifetime opportunity to try out for the WWE. But when only Paige earns a spot in the competitive training program, she must leave her loved ones behind and face this new cutthroat world alone. Paige's journey pushes her to dig deep and ultimately prove to the world that what makes her different is the very thing that can make her a star.",
         "release_date":"2019-02-14"
      },
      {
         "vote_count":71,
         "id":535167,
         "video":false,
         "vote_average":6.6,
         "title":"The Wandering Earth",
         "popularity":117.51,
         "poster_path":"\/yzqpJcJT79CLTNdZVU7HHee6L3a.jpg",
         "original_language":"zh",
         "original_title":"The Wandering Earth",
         "genre_ids":[
            878,
            28,
            18,
            35
         ],
         "backdrop_path":"\/m5OlkBJZKTlMGJUaxMDINplKBRp.jpg",
         "adult":false,
         "overview":"When the Sun begins to expand in such a way that it will inevitably engulf and destroy the Earth in a hundred years, united mankind finds a way to avoid extinction by propelling the planet out of the Solar System using gigantic engines, moving it to a new home located four light years away, an epic journey that will last thousands of years.",
         "release_date":"2019-02-05"
      },
      {
         "vote_count":15,
         "id":576393,
         "video":false,
         "vote_average":5.7,
         "title":"Fall in Love at First Kiss",
         "popularity":106.618,
         "poster_path":"\/wtaSH8MfJSCEIrrEX9SQuHdU5sl.jpg",
         "original_language":"zh",
         "original_title":"一吻定情",
         "genre_ids":[
            10749,
            35
         ],
         "backdrop_path":"\/yY7kr7Rgvo8W0Kr3U0bMV8Zq1qM.jpg",
         "adult":false,
         "overview":"After an earthquake destroys Xiang Qin's house, she and her father move in with the family of her father's college buddy. To her surprise, her new kind and amicable aunt and uncle are the parents of her cold and distant schoolmate, Jiang Zhi Shu, a genius with an IQ of 200 whom not too long ago rejected her when she confessed her feelings for him. Will the close proximity give her a second chance to win Zhi Shu's heart? Or will her love for him end under his cold words?",
         "release_date":"2019-02-14"
      },
      {
         "vote_count":1679,
         "id":166428,
         "video":false,
         "vote_average":7.6,
         "title":"How to Train Your Dragon: The Hidden World",
         "popularity":100.51,
         "poster_path":"\/xvx4Yhf0DVH8G4LzNISpMfFBDy2.jpg",
         "original_language":"en",
         "original_title":"How to Train Your Dragon: The Hidden World",
         "genre_ids":[
            16,
            10751,
            12
         ],
         "backdrop_path":"\/lFwykSz3Ykj1Q3JXJURnGUTNf1o.jpg",
         "adult":false,
         "overview":"As Hiccup fulfills his dream of creating a peaceful dragon utopia, Toothless’ discovery of an untamed, elusive mate draws the Night Fury away. When danger mounts at home and Hiccup’s reign as village chief is tested, both dragon and rider must make impossible decisions to save their kind.",
         "release_date":"2019-01-03"
      },
      {
         "vote_count":1066,
         "id":329996,
         "video":false,
         "vote_average":6.6,
         "title":"Dumbo",
         "popularity":96.756,
         "poster_path":"\/279PwJAcelI4VuBtdzrZASqDPQr.jpg",
         "original_language":"en",
         "original_title":"Dumbo",
         "genre_ids":[
            12,
            10751,
            14
         ],
         "backdrop_path":"\/5tFt6iuGnKapHl5tw0X0cKcnuVo.jpg",
         "adult":false,
         "overview":"A young elephant, whose oversized ears enable him to fly, helps save a struggling circus, but when the circus plans a new venture, Dumbo and his friends discover dark secrets beneath its shiny veneer.",
         "release_date":"2019-03-27"
      },
      {
         "vote_count":14,
         "id":447404,
         "video":false,
         "vote_average":6.9,
         "title":"POKÉMON Detective Pikachu",
         "popularity":92.793,
         "poster_path":"\/wgQ7APnFpf1TuviKHXeEe3KnsTV.jpg",
         "original_language":"en",
         "original_title":"POKÉMON Detective Pikachu",
         "genre_ids":[
            9648,
            10751,
            80,
            14,
            35,
            878
         ],
         "backdrop_path":"\/yXybBEC45p84D0Ky7GmQQYrclVr.jpg",
         "adult":false,
         "overview":"In a world where people collect pocket-size monsters (pokemon) to do battle, a boy comes across an intelligent monster who seeks to be a detective.",
         "release_date":"2019-05-03"
      },
      {
         "vote_count":42,
         "id":500852,
         "video":false,
         "vote_average":6.6,
         "title":"Miss Bala",
         "popularity":79.193,
         "poster_path":"\/ae9yrSAS7nLZPbbkOm61pSuIqeo.jpg",
         "original_language":"en",
         "original_title":"Miss Bala",
         "genre_ids":[
            53,
            28,
            18
         ],
         "backdrop_path":"\/5OoR3aVpxXluSCe9P5mhqOa36Gb.jpg",
         "adult":false,
         "overview":"Gloria finds a power she never knew she had when she is drawn into a dangerous world of cross-border crime. Surviving will require all of her cunning, inventiveness, and strength.",
         "release_date":"2019-02-01"
      },
      {
         "vote_count":1,
         "id":566555,
         "video":false,
         "vote_average":1,
         "title":"Detective Conan: The Fist of Blue Sapphire",
         "popularity":79.008,
         "poster_path":"\/1GyvpwvgswOrHvxjnw2FBLNkTyo.jpg",
         "original_language":"ja",
         "original_title":"名探偵コナン 紺青の拳（フィスト）",
         "genre_ids":[
            16,
            28,
            18,
            9648,
            35
         ],
         "backdrop_path":"\/wf6VDSi4aFCZfuD8sX8JAKLfJ5m.jpg",
         "adult":false,
         "overview":"23rd Detective Conan Movie.",
         "release_date":"2019-04-12"
      },
      {
         "vote_count":94,
         "id":457799,
         "video":false,
         "vote_average":6.9,
         "title":"Extremely Wicked, Shockingly Evil and Vile",
         "popularity":75.586,
         "poster_path":"\/zSuJ3r5zr5T26tTxyygHhgkUAIM.jpg",
         "original_language":"en",
         "original_title":"Extremely Wicked, Shockingly Evil and Vile",
         "genre_ids":[
            53,
            80,
            18,
            36
         ],
         "backdrop_path":"\/roAfKxzL6DQ35DlD4idFB5hjVuy.jpg",
         "adult":false,
         "overview":"A chronicle of the crimes of Ted Bundy, from the perspective of his longtime girlfriend, Elizabeth Kloepfer, who refused to believe the truth about him for years.",
         "release_date":"2019-05-02"
      },
      {
         "vote_count":98,
         "id":376865,
         "video":false,
         "vote_average":5.9,
         "title":"High Life",
         "popularity":74.218,
         "poster_path":"\/wElOvH7H6sLElsTOLu1MY6oWRUx.jpg",
         "original_language":"en",
         "original_title":"High Life",
         "genre_ids":[
            878,
            18,
            9648,
            53,
            27
         ],
         "backdrop_path":"\/9M18vLHaaS3SNdHYrIsIWIHCm1W.jpg",
         "adult":false,
         "overview":"Monte and his baby daughter are the last survivors of a damned and dangerous mission to the outer reaches of the solar system. They must now rely on each other to survive as they hurtle toward the oblivion of a black hole.",
         "release_date":"2018-11-07"
      },
      {
         "vote_count":138,
         "id":532671,
         "video":false,
         "vote_average":6,
         "title":"The Prodigy",
         "popularity":72.93,
         "poster_path":"\/yyejodyk3lWncVjVhhrEkPctY9o.jpg",
         "original_language":"en",
         "original_title":"The Prodigy",
         "genre_ids":[
            27,
            53
         ],
         "backdrop_path":"\/oxTgovZ3TQ8LLxifUm16ROMULP5.jpg",
         "adult":false,
         "overview":"A mother concerned about her young son's disturbing behavior thinks something supernatural may be affecting him.",
         "release_date":"2019-02-06"
      },
      {
         "vote_count":1238,
         "id":458723,
         "video":false,
         "vote_average":7.2,
         "title":"Us",
         "popularity":70.532,
         "poster_path":"\/ux2dU1jQ2ACIMShzB3yP93Udpzc.jpg",
         "original_language":"en",
         "original_title":"Us",
         "genre_ids":[
            53,
            27
         ],
         "backdrop_path":"\/jNUCddkM1fjYcFIcEwFjc7s2H4V.jpg",
         "adult":false,
         "overview":"Husband and wife Gabe and Adelaide Wilson take their kids to their beach house expecting to unplug and unwind with friends. But as night descends, their serenity turns to tension and chaos when some shocking visitors arrive uninvited.",
         "release_date":"2019-03-14"
      },
      {
         "vote_count":28,
         "id":514439,
         "video":false,
         "vote_average":6.8,
         "title":"Breakthrough",
         "popularity":56.752,
         "poster_path":"\/t58dx7JIgchr9If5uxn3NmHaHoS.jpg",
         "original_language":"en",
         "original_title":"Breakthrough",
         "genre_ids":[
            18
         ],
         "backdrop_path":"\/6jaNHf9ja84YG3KWMDK1nOnvGDg.jpg",
         "adult":false,
         "overview":"When he was 14, Smith drowned in Lake St. Louis and was dead for nearly an hour. According to reports at the time, CPR was performed 27 minutes to no avail. Then the youth's mother, Joyce Smith, entered the room, praying loudly. Suddenly, there was a pulse, and Smith came around.",
         "release_date":"2019-04-11"
      },
      {
         "vote_count":4,
         "id":524247,
         "video":false,
         "vote_average":7.4,
         "title":"The Intruder",
         "popularity":55.283,
         "poster_path":"\/p9xKyetr0ihJ2K6HJMeXzc4IwEv.jpg",
         "original_language":"en",
         "original_title":"The Intruder",
         "genre_ids":[
            53,
            18
         ],
         "backdrop_path":"\/kyegg1r5oxRCZgqU7anHYD2TJap.jpg",
         "adult":false,
         "overview":"A psychological thriller about a young married couple who buys a beautiful Napa Valley house on several acres of land only to find that the man they bought it from refuses to let go of the property.",
         "release_date":"2019-05-03"
      },
      {
         "vote_count":499,
         "id":440161,
         "video":false,
         "vote_average":7,
         "title":"The Sisters Brothers",
         "popularity":52.091,
         "poster_path":"\/7Tl2nZ6uvmxwK14Skbf9VFHEHpX.jpg",
         "original_language":"en",
         "original_title":"The Sisters Brothers",
         "genre_ids":[
            35,
            18,
            37
         ],
         "backdrop_path":"\/iOa6iD7t7nv6wghPuMdZCaQSDJh.jpg",
         "adult":false,
         "overview":"Oregon, 1851. Hermann Kermit Warm, a chemist and aspiring gold prospector, keeps a profitable secret that the Commodore wants to know, so he sends the Sisters brothers, two notorious assassins, to capture him on his way to California.",
         "release_date":"2018-09-19"
      }
   ],
   "page":1,
   "total_results":988,
   "dates":{
      "maximum":"2019-05-10",
      "minimum":"2019-03-23"
   },
   "total_pages":50
}